TIME 0
Waiting clients: (1,4,2); (2,7,3); (3,29,3); (4,20,3); (5,3,3); (6,10,3); 
Queue 1: closed
Queue 2: closed
Queue 3: closed

TIME 1
Waiting clients: (1,4,2); (2,7,3); (3,29,3); (4,20,3); (5,3,3); (6,10,3); 
Queue 1: closed
Queue 2: closed
Queue 3: closed

TIME 2
Waiting clients: (1,4,2); (2,7,3); (3,29,3); (4,20,3); (5,3,3); (6,10,3); 
Queue 1: closed
Queue 2: closed
Queue 3: closed

TIME 3
Waiting clients: (1,4,2); (2,7,3); (3,29,3); (4,20,3); (6,10,3); 
Queue 1: (5,3,3); 
Queue 2: closed
Queue 3: closed

TIME 4
Waiting clients: (2,7,3); (3,29,3); (4,20,3); (6,10,3); 
Queue 1: (5,3,2); 
Queue 2: (1,4,2); 
Queue 3: closed

TIME 5
Waiting clients: (2,7,3); (3,29,3); (4,20,3); (6,10,3); 
Queue 1: (5,3,1); 
Queue 2: (1,4,1); 
Queue 3: closed

TIME 6
Waiting clients: (2,7,3); (3,29,3); (4,20,3); (6,10,3); 
Queue 1: closed
Queue 2: closed
Queue 3: closed

TIME 7
Waiting clients: (3,29,3); (4,20,3); (6,10,3); 
Queue 1: (2,7,3); 
Queue 2: closed
Queue 3: closed

TIME 8
Waiting clients: (3,29,3); (4,20,3); (6,10,3); 
Queue 1: (2,7,2); 
Queue 2: closed
Queue 3: closed

TIME 9
Waiting clients: (3,29,3); (4,20,3); (6,10,3); 
Queue 1: (2,7,1); 
Queue 2: closed
Queue 3: closed

TIME 10
Waiting clients: (3,29,3); (4,20,3); 
Queue 1: (6,10,3); 
Queue 2: closed
Queue 3: closed

TIME 11
Waiting clients: (3,29,3); (4,20,3); 
Queue 1: (6,10,2); 
Queue 2: closed
Queue 3: closed

TIME 12
Waiting clients: (3,29,3); (4,20,3); 
Queue 1: (6,10,1); 
Queue 2: closed
Queue 3: closed

TIME 13
Waiting clients: (3,29,3); (4,20,3); 
Queue 1: closed
Queue 2: closed
Queue 3: closed

TIME 14
Waiting clients: (3,29,3); (4,20,3); 
Queue 1: closed
Queue 2: closed
Queue 3: closed

TIME 15
Waiting clients: (3,29,3); (4,20,3); 
Queue 1: closed
Queue 2: closed
Queue 3: closed

TIME 16
Waiting clients: (3,29,3); (4,20,3); 
Queue 1: closed
Queue 2: closed
Queue 3: closed

TIME 17
Waiting clients: (3,29,3); (4,20,3); 
Queue 1: closed
Queue 2: closed
Queue 3: closed

TIME 18
Waiting clients: (3,29,3); (4,20,3); 
Queue 1: closed
Queue 2: closed
Queue 3: closed

TIME 19
Waiting clients: (3,29,3); (4,20,3); 
Queue 1: closed
Queue 2: closed
Queue 3: closed

TIME 20
Waiting clients: (3,29,3); 
Queue 1: (4,20,3); 
Queue 2: closed
Queue 3: closed

TIME 21
Waiting clients: (3,29,3); 
Queue 1: (4,20,2); 
Queue 2: closed
Queue 3: closed

TIME 22
Waiting clients: (3,29,3); 
Queue 1: (4,20,1); 
Queue 2: closed
Queue 3: closed

TIME 23
Waiting clients: (3,29,3); 
Queue 1: closed
Queue 2: closed
Queue 3: closed

TIME 24
Waiting clients: (3,29,3); 
Queue 1: closed
Queue 2: closed
Queue 3: closed

TIME 25
Waiting clients: (3,29,3); 
Queue 1: closed
Queue 2: closed
Queue 3: closed

TIME 26
Waiting clients: (3,29,3); 
Queue 1: closed
Queue 2: closed
Queue 3: closed

TIME 27
Waiting clients: (3,29,3); 
Queue 1: closed
Queue 2: closed
Queue 3: closed

TIME 28
Waiting clients: (3,29,3); 
Queue 1: closed
Queue 2: closed
Queue 3: closed

TIME 29
Waiting clients: 
Queue 1: (3,29,3); 
Queue 2: closed
Queue 3: closed

Average waiting time: 2.8